[{
    "title": "Abby\u0027s Ultimate Dance Competition",
    "url": "shows\/abbys-ultimate-dance-competition",
    "nid": "22790",
    "total_videos": "12"
}, {
    "title": "Dance Moms: Abby\u0027s Studio Rescue",
    "url": "shows\/abbys-studio-rescue",
    "nid": "22790",
    "total_videos": "4"
}, {
    "title": "Raising Asia",
    "url": "shows\/raising-asia",
    "nid": "22790",
    "total_videos": "13"
}, {
    "title": "Bristol Palin: Life\u0027s a Tripp",
    "url": "shows\/bristol-palin-lifes-a-tripp",
    "nid": "22790",
    "total_videos": "1"
}, {
    "title": "Bring It!",
    "url": "shows\/bring-it",
    "nid": "22790",
    "total_videos": "22"
}]