/*!Last Updated: <inZertDATe> by Jonathan Robles*/
/*!*/
/*!***********************************************/
/*!  __  __        _                             */
/*! |  \/  |___ __| |___ __ __ _ _ __  ___       */
/*! | |\/| / -_) _` (_-</ _/ _` | '_ \/ -_)      */
/*! |_|  |_\___\__,_/__/\__\__,_| .__/\___|      */
/*!                             |_|              */
/*! <fIlEznaMeZ> MODULE */                           
/*! by Jonathan Robles for WEBMD/Medscape 2013   */
/*!                                              */
/*!***********************************************/
/*!<inZertcOmpRessiOnSTYLE>*/
/*!*/
/*!*/
/*!*/
/*!*/
/*!*/
/*!Last Updated: <inZertDATe> by Jonathan Robles*/
