{
  "name": "Monarch",
  "version": "1.0.0",
  "description": "awesome",
  "devDependencies": {
    "grunt": "^0.4.5",
    "grunt-contrib-concat": "^0.5.0",
    "grunt-contrib-copy": "^0.7.0",
    "grunt-contrib-cssmin": "^0.10.0",
    "grunt-contrib-jshint": "^0.10.0",
    "grunt-contrib-uglify": "^0.6.0",
    "grunt-contrib-watch": "^0.6.1"
  },
  "main": "Gruntfile.js",
  "dependencies": {
    "grunt": "^0.4.5",
    "grunt-contrib-jshint": "^0.10.0",
    "grunt-contrib-uglify": "^0.6.0",
    "grunt-contrib-concat": "^0.5.0",
    "grunt-contrib-copy": "^0.7.0",
    "grunt-contrib-watch": "^0.6.1",
    "grunt-contrib-cssmin": "^0.10.0",
    "grunt-contrib-requirejs": "^0.4.4",
    "grunt-contrib-qunit": "^0.5.2",
    "grunt-mocha": "^0.4.11",
    "qunitjs": "^1.15.0",
    "grunt-contrib-jasmine": "^0.8.1",
    "less": "^1.7.0",
    "uglify-js": "^2.4.13",
    "grunt-mocha-phantomjs": "^0.6.0",
    "normalize.css": "^3.0.1"
  },
  "scripts": {
    "test": "echo \"Error: no test specified\" && exit 1"
  },
  "repository": {
    "type": "git",
    "url": "https://superjonbot@bitbucket.org/superjonbot/monarch_dev.git"
  },
  "author": "",
  "license": "ISC"
}
