/*!Last Updated: <inZertDATe> by Jonathan Robles*/



/*!***********************************************/
/*!  __  __        _                             */
/*! |  \/  |___ __| |___ __ __ _ _ __  ___       */
/*! | |\/| / -_) _` (_-</ _/ _` | '_ \/ -_)      */
/*! |_|  |_\___\__,_/__/\__\__,_| .__/\___|      */
/*!                             |_|              */
//  THE STANDARD MODULE                                  
/*! by Jonathan Robles for WEBMD/Medscape 2013   */
/*!                                              */
/*!***********************************************/

 // NOTE: UNDER ANY CIRCUMSTANCES, DON'T SCREW WITH THIS MODULE!!!
 //
 // USAGE: DON'T USE THIS! just extend from it! ;) :X
 //
/*<inZertcOmpRessiOnSTYLE>*/


/*!Last Updated: <inZertDATe> by Jonathan Robles*/